<svg width="36" height="34" viewBox="0 0 36 34" fill="none" xmlns="http://www.w3.org/2000/svg">
<path d="M15.7226 0L15.3259 0.353852L0.870661 14.8756L0 15.7407L0.870661 16.6461L12.9104 28.6091L13.8216 29.4742L16.2371 27.0741C17.5742 31.0886 21.3813 34 25.8613 34C31.4452 34 36 29.4742 36 23.9259C36 19.5236 33.1231 15.7659 29.1488 14.4021L29.3072 14.2447L29.6633 13.8519V0H15.7226ZM16.7922 2.51852H27.1286V12.789L26.059 13.8519H25.8613C20.2774 13.8519 15.7226 18.3776 15.7226 23.9259V24.0443L13.8216 25.9332L3.56375 15.7407L16.7922 2.51852ZM23.3266 5.03704C22.6296 5.03704 22.0593 5.6037 22.0593 6.2963C22.0593 6.98889 22.6296 7.55556 23.3266 7.55556C24.0237 7.55556 24.594 6.98889 24.594 6.2963C24.594 5.6037 24.0237 5.03704 23.3266 5.03704ZM25.8613 16.3704C30.0739 16.3704 33.4653 19.7401 33.4653 23.9259C33.4653 28.1117 30.0739 31.4815 25.8613 31.4815C21.6487 31.4815 18.2573 28.1117 18.2573 23.9259C18.2573 19.7401 21.6487 16.3704 25.8613 16.3704ZM24.594 18.8889V22.6667H20.7919V25.1852H24.594V28.963H27.1286V25.1852H30.9306V22.6667H27.1286V18.8889H24.594Z" fill="url(#paint0_linear)"/>
<defs>
<linearGradient id="paint0_linear" x1="35.8983" y1="0" x2="0.101694" y2="0" gradientUnits="userSpaceOnUse">
<stop stop-color="#A95EEE"/>
<stop offset="1" stop-color="#FF006A"/>
</linearGradient>
</defs>
</svg>
