<svg width="38" height="37" viewBox="0 0 38 37" fill="none" xmlns="http://www.w3.org/2000/svg">
<path d="M15.96 0C14.1479 0.00650522 12.4118 0.740062 11.1305 2.04068C9.84911 3.34129 9.12641 5.10343 9.12 6.94276C9.12 8.17703 9.46504 9.32336 10.0229 10.3185C7.28536 11.9446 5.14216 14.2527 3.99 16.9712H3.8C3.69957 16.9735 3.59972 16.9552 3.50648 16.9172C3.41324 16.8793 3.32854 16.8225 3.25751 16.7504C3.18648 16.6783 3.13058 16.5924 3.09319 16.4977C3.05581 16.4031 3.03771 16.3017 3.04 16.1998C3.04 15.9282 3.1768 15.7122 3.37288 15.5734L1.61424 13.0663C1.11622 13.4178 0.709327 13.8863 0.428249 14.4319C0.147172 14.9776 0.000247053 15.5841 0 16.1998C0 18.0975 1.39536 19.6527 3.18288 19.9612C3.10536 20.5012 3.04 21.0397 3.04 21.5997C3.04 25.4445 5.05248 28.777 7.98 31.2424C7.61216 32.7853 7.79608 34.4299 8.97712 35.6303C9.84906 36.5077 11.0272 37 12.255 37C13.4828 37 14.6609 36.5077 15.5329 35.6303L16.1029 35.0517C17.29 35.2739 18.4832 35.4852 19.76 35.4852C21.0368 35.4852 22.23 35.2739 23.4171 35.0517L23.9871 35.6303C24.8591 36.5077 26.0372 37 27.265 37C28.4928 37 29.6709 36.5077 30.5429 35.6303C31.6996 34.4546 31.8729 32.8578 31.54 31.3381C32.7589 30.3333 33.8025 29.1274 34.6271 27.7711H38V15.4284H34.5329C33.981 14.519 33.3271 13.6777 32.5842 12.9213L33.44 8.14772V6.17135H31.92C31.92 6.17135 28.269 6.23306 25.1742 8.5828C24.3617 8.34488 23.5372 8.15124 22.7042 8.00269C22.765 7.66018 22.8 7.30379 22.8 6.94276C22.8 3.12733 19.719 0 15.96 0ZM15.96 3.08567C18.0728 3.08567 19.76 4.79822 19.76 6.94276C19.76 7.20813 19.7129 7.46116 19.6642 7.71418C17.2125 7.72652 14.8975 8.20789 12.7786 9.01634C12.375 8.4024 12.1598 7.68083 12.16 6.94276C12.16 4.79822 13.8472 3.08567 15.96 3.08567ZM30.02 9.54707C30.0443 9.5409 30.0443 9.5517 30.0671 9.54707L29.4971 13.0647L29.3558 13.8855L30.02 14.4641C31.0349 15.3563 31.8732 16.4365 32.49 17.647L32.9171 18.514H34.96V24.6854H32.9171L32.49 25.554C31.7482 27.0413 30.5778 28.3496 29.07 29.4574L27.9771 30.2782L28.6429 31.5325C29.0046 32.1527 28.9393 32.918 28.4042 33.461C28.26 33.6137 28.0867 33.7352 27.895 33.8182C27.7033 33.9012 27.497 33.944 27.2886 33.944C27.0801 33.944 26.8738 33.9012 26.6821 33.8182C26.4904 33.7352 26.3172 33.6137 26.1729 33.461L25.08 32.3502L24.4629 31.7732L23.6542 31.966C22.42 32.2545 21.1082 32.3996 19.76 32.3996C18.4495 32.4044 17.1426 32.259 15.8642 31.966L15.0586 31.7732L14.44 32.3517L13.3471 33.4595C13.2028 33.6124 13.0295 33.7341 12.8376 33.8173C12.6458 33.9004 12.4393 33.9433 12.2307 33.9433C12.0221 33.9433 11.8156 33.9004 11.6237 33.8173C11.4318 33.7341 11.2585 33.6124 11.1142 33.4595C10.8641 33.2136 10.7042 32.8884 10.6611 32.5376C10.6179 32.1869 10.6942 31.8317 10.8771 31.5309L11.5429 30.2782L10.45 29.4589C7.70032 27.4316 6.08 24.6669 6.08 21.5997C6.08 15.8264 12.0232 10.7999 19.76 10.7999C21.6296 10.7999 23.411 11.0837 25.0329 11.6191L25.84 11.9092L26.5058 11.3306C27.591 10.3478 28.9332 9.81861 30.02 9.54707ZM28.88 18.514C28.044 18.514 27.36 19.2083 27.36 20.0569C27.36 20.9054 28.044 21.5997 28.88 21.5997C29.716 21.5997 30.4 20.9054 30.4 20.0569C30.4 19.2083 29.716 18.514 28.88 18.514Z" fill="url(#paint0_linear)"/>
<defs>
<linearGradient id="paint0_linear" x1="37.8927" y1="0" x2="0.107343" y2="0" gradientUnits="userSpaceOnUse">
<stop stop-color="#A95EEE"/>
<stop offset="1" stop-color="#FF006A"/>
</linearGradient>
</defs>
</svg>
