<svg width="32" height="32" viewBox="0 0 32 32" fill="none" xmlns="http://www.w3.org/2000/svg">
<circle cx="16" cy="16" r="16" fill="#071C40"/>
<mask id="mask0" mask-type="alpha" maskUnits="userSpaceOnUse" x="0" y="0" width="32" height="32">
<circle cx="16" cy="16" r="16" fill="#071C40"/>
</mask>
<g mask="url(#mask0)">
<path d="M16 7C12.3656 7 9.4 9.81855 9.4 13.2727C9.4 16.7269 12.3656 19.5455 16 19.5455C19.6344 19.5455 22.6 16.7269 22.6 13.2727C22.6 9.81855 19.6344 7 16 7ZM16 19.5455C13.0844 19.551 10.2899 20.6542 8.22825 22.6136C6.16661 24.573 5.00581 27.229 5 30H7.2C7.2 25.3686 11.127 21.6364 16 21.6364C20.873 21.6364 24.8 25.3686 24.8 30H27C27 24.2416 22.0588 19.5455 16 19.5455ZM16 9.09091C18.442 9.09091 20.4 10.9518 20.4 13.2727C20.4 15.5936 18.442 17.4545 16 17.4545C13.558 17.4545 11.6 15.5936 11.6 13.2727C11.6 10.9518 13.558 9.09091 16 9.09091Z" fill="url(#paint0_linear)"/>
</g>
<defs>
<linearGradient id="paint0_linear" x1="26.9379" y1="7" x2="5.06215" y2="7" gradientUnits="userSpaceOnUse">
<stop stop-color="#A95EEE"/>
<stop offset="1" stop-color="#FF006A"/>
</linearGradient>
</defs>
</svg>
